{
    "/js/bundle/manifest.js": "/js/bundle/manifest.js",
    "/js/bundle/vendor.js": "/js/bundle/vendor.js",
    "/js/bundle/libs.js": "/js/bundle/libs.js",
    "/js/bundle/login.js": "/js/bundle/login.js",
    "/js/bundle/main.js": "/js/bundle/main.js",
    "/css/mainv2.css": "/css/mainv2.css",
    "/css/vue-styles.css": "/css/vue-styles.css",
    "/js/bundle/components.min.js": "/js/bundle/components.min.js",
    "/js/bundle/libraries.min.js": "/js/bundle/libraries.min.js"
}
